Code Book - 1 Basics of R
…
1.5 Look at the contents of an object

iris_data

# A tibble: 150 × 5
   Sepal.Length Sepal.Width Petal.Length Petal.Width Species
          <dbl>       <dbl>        <dbl>       <dbl> <chr>  
 1          5.1         3.5          1.4         0.2 setosa 
 2          4.9         3            1.4         0.2 setosa 
 3          4.7         3.2          1.3         0.2 setosa 
 4          4.6         3.1          1.5         0.2 setosa 
 5          5           3.6          1.4         0.2 setosa 
 6          5.4         3.9          1.7         0.4 setosa 
 7          4.6         3.4          1.4         0.3 setosa 
 8          5           3.4          1.5         0.2 setosa 
 9          4.4         2.9          1.4         0.2 setosa 
10          4.9         3.1          1.5         0.1 setosa 
# ℹ 140 more rows
…
1.7.1 Filter

filter():

Filters rows based on specified conditions.

Returns only the rows that meet the condition(s).

iris_data %>% 
  filter(
    Species == "setosa",
    Sepal.Length > 4.3)

# A tibble: 49 × 5
   Sepal.Length Sepal.Width Petal.Length Petal.Width Species
          <dbl>       <dbl>        <dbl>       <dbl> <chr>  
 1          5.1         3.5          1.4         0.2 setosa 
 2          4.9         3            1.4         0.2 setosa 
 3          4.7         3.2          1.3         0.2 setosa 
 4          4.6         3.1          1.5         0.2 setosa 
 5          5           3.6          1.4         0.2 setosa 
 6          5.4         3.9          1.7         0.4 setosa 
 7          4.6         3.4          1.4         0.3 setosa 
 8          5           3.4          1.5         0.2 setosa 
 9          4.4         2.9          1.4         0.2 setosa 
10          4.9         3.1          1.5         0.1 setosa 
# ℹ 39 more rows
…
- subtract

%% modulo

1.7.3 AND (&)

Filtering rows where Sepal.Length is greater than 5 AND Species is not setosa

iris_data %>% 
  filter(
    Sepal.Length > 5 & Species != "setosa"
    )

# A tibble: 96 × 5
   Sepal.Length Sepal.Width Petal.Length Petal.Width Species   
          <dbl>       <dbl>        <dbl>       <dbl> <chr>     
 1          7           3.2          4.7         1.4 versicolor
 2          6.4         3.2          4.5         1.5 versicolor
 3          6.9         3.1          4.9         1.5 versicolor
 4          5.5         2.3          4           1.3 versicolor
 5          6.5         2.8          4.6         1.5 versicolor
 6          5.7         2.8          4.5         1.3 versicolor
 7          6.3         3.3          4.7         1.6 versicolor
 8          6.6         2.9          4.6         1.3 versicolor
 9          5.2         2.7          3.9         1.4 versicolor
10          5.9         3            4.2         1.5 versicolor
# ℹ 86 more rows

1.7.4 OR (|)

Filtering rows where Sepal.Length is less than 5 OR Species is setosa

iris_data %>% 
  filter(
    Sepal.Length < 5 | Species == "setosa"
    )

# A tibble: 52 × 5
   Sepal.Length Sepal.Width Petal.Length Petal.Width Species
          <dbl>       <dbl>        <dbl>       <dbl> <chr>  
 1          5.1         3.5          1.4         0.2 setosa 
 2          4.9         3            1.4         0.2 setosa 
 3          4.7         3.2          1.3         0.2 setosa 
 4          4.6         3.1          1.5         0.2 setosa 
 5          5           3.6          1.4         0.2 setosa 
 6          5.4         3.9          1.7         0.4 setosa 
 7          4.6         3.4          1.4         0.3 setosa 
 8          5           3.4          1.5         0.2 setosa 
 9          4.4         2.9          1.4         0.2 setosa 
10          4.9         3.1          1.5         0.1 setosa 
# ℹ 42 more rows

1.7.5 NOT (!)

Filtering rows where Species is NOT “setosa” by negating the test with ! placed at the start. Compare to above where != was used for not-equal. Here it tests if the species equals setosa, then returns all rows where that is NOT true.

iris_data %>% 
  filter(
    !(Species == "setosa")
    )

# A tibble: 100 × 5
   Sepal.Length Sepal.Width Petal.Length Petal.Width Species   
          <dbl>       <dbl>        <dbl>       <dbl> <chr>     
 1          7           3.2          4.7         1.4 versicolor
 2          6.4         3.2          4.5         1.5 versicolor
 3          6.9         3.1          4.9         1.5 versicolor
 4          5.5         2.3          4           1.3 versicolor
 5          6.5         2.8          4.6         1.5 versicolor
 6          5.7         2.8          4.5         1.3 versicolor
 7          6.3         3.3          4.7         1.6 versicolor
 8          4.9         2.4          3.3         1   versicolor
 9          6.6         2.9          4.6         1.3 versicolor
10          5.2         2.7          3.9         1.4 versicolor
# ℹ 90 more rows
…
Can sort in ascending or descending order.

Using a list will sort by item 1, then item 2, then item 3.

As with filter, this function can accept a list of actions that are carried out sequentially

iris_data %>% 
  arrange(
    Sepal.Length,
    Sepal.Width,
    Species
    )

# A tibble: 150 × 5
   Sepal.Length Sepal.Width Petal.Length Petal.Width Species
          <dbl>       <dbl>        <dbl>       <dbl> <chr>  
 1          4.3         3            1.1         0.1 setosa 
 2          4.4         2.9          1.4         0.2 setosa 
 3          4.4         3            1.3         0.2 setosa 
 4          4.4         3.2          1.3         0.2 setosa 
 5          4.5         2.3          1.3         0.3 setosa 
 6          4.6         3.1          1.5         0.2 setosa 
 7          4.6         3.2          1.4         0.2 setosa 
 8          4.6         3.4          1.4         0.3 setosa 
 9          4.6         3.6          1           0.2 setosa 
10          4.7         3.2          1.3         0.2 setosa 
# ℹ 140 more rows

iris_data %>% 
  arrange(
    !Sepal.Length,
    Sepal.Width,
    Species
    )

# A tibble: 150 × 5
   Sepal.Length Sepal.Width Petal.Length Petal.Width Species   
          <dbl>       <dbl>        <dbl>       <dbl> <chr>     
 1          5           2            3.5         1   versicolor
 2          6           2.2          4           1   versicolor
 3          6.2         2.2          4.5         1.5 versicolor
 4          6           2.2          5           1.5 virginica 
 5          4.5         2.3          1.3         0.3 setosa    
 6          5.5         2.3          4           1.3 versicolor
 7          6.3         2.3          4.4         1.3 versicolor
 8          5           2.3          3.3         1   versicolor
 9          4.9         2.4          3.3         1   versicolor
10          5.5         2.4          3.8         1.1 versicolor
# ℹ 140 more rows
…
select():

Selects specific columns from a data frame or tibble.

Useful for reducing data to only the columns of interest.

As with other verbs, a sequential set of actions is possible

iris_data %>% 
  select(
    Sepal.Length, 
    Species
    )

# A tibble: 150 × 2
   Sepal.Length Species
          <dbl> <chr>  
 1          5.1 setosa 
 2          4.9 setosa 
 3          4.7 setosa 
 4          4.6 setosa 
 5          5   setosa 
 6          5.4 setosa 
 7          4.6 setosa 
 8          5   setosa 
 9          4.4 setosa 
10          4.9 setosa 
# ℹ 140 more rows

It’s also possible to negate an action,

iris_data %>% 
  select(
    !Species
    )

# A tibble: 150 × 4
   Sepal.Length Sepal.Width Petal.Length Petal.Width
          <dbl>       <dbl>        <dbl>       <dbl>
 1          5.1         3.5          1.4         0.2
 2          4.9         3            1.4         0.2
 3          4.7         3.2          1.3         0.2
 4          4.6         3.1          1.5         0.2
 5          5           3.6          1.4         0.2
 6          5.4         3.9          1.7         0.4
 7          4.6         3.4          1.4         0.3
 8          5           3.4          1.5         0.2
 9          4.4         2.9          1.4         0.2
10          4.9         3.1          1.5         0.1
# ℹ 140 more rows
1.7.9 Mutate

mutate():

Adds new columns or modifies existing columns in a tibble.

Commonly used for creating calculated columns.

iris_data %>%
  mutate(
    Petal.Ratio = Petal.Length / Petal.Width,
    Petal.Area = Petal.Length * Petal.Width
         )

# A tibble: 150 × 7
   Sepal.Length Sepal.Width Petal.Length Petal.Width Species Petal.Ratio
          <dbl>       <dbl>        <dbl>       <dbl> <chr>         <dbl>
 1          5.1         3.5          1.4         0.2 setosa         7   
 2          4.9         3            1.4         0.2 setosa         7   
 3          4.7         3.2          1.3         0.2 setosa         6.5 
 4          4.6         3.1          1.5         0.2 setosa         7.5 
 5          5           3.6          1.4         0.2 setosa         7   
 6          5.4         3.9          1.7         0.4 setosa         4.25
 7          4.6         3.4          1.4         0.3 setosa         4.67
 8          5           3.4          1.5         0.2 setosa         7.5 
 9          4.4         2.9          1.4         0.2 setosa         7   
10          4.9         3.1          1.5         0.1 setosa        15   
# ℹ 140 more rows
# ℹ 1 more variable: Petal.Area <dbl>
…
To pivot this data set, we provide

cols = : The columns that will be used to pivot in to the new ‘values’ column. Here we want all columns from the dataset except the religion column which provides the labels, so simply exclude that one with !religion. You could also specify specific columns with a list cols = c("<$10k","$10-20k","$20-30k")

relig_income_long <- relig_income %>%
    pivot_longer(
      cols = !religion, 
      names_to = "income", 
      values_to = "n")

relig_income_long

# A tibble: 180 × 3
   religion income                 n
   <chr>    <chr>              <dbl>
 1 Agnostic <$10k                 27
 2 Agnostic $10-20k               34
 3 Agnostic $20-30k               60
 4 Agnostic $30-40k               81
 5 Agnostic $40-50k               76
 6 Agnostic $50-75k              137
 7 Agnostic $75-100k             122
 8 Agnostic $100-150k            109
 9 Agnostic >150k                 84
10 Agnostic Don't know/refused    96
# ℹ 170 more rows
…
    filter(
      income != "Don't know/refused"
          ) %>% 

    arrange(
      income,
      religion
          )

# A tibble: 162 × 3
   religion                income  count
   <chr>                   <chr>   <dbl>
 1 Agnostic                $10-20k    34
 2 Atheist                 $10-20k    27
 3 Buddhist                $10-20k    21
 4 Catholic                $10-20k   617
 5 Don’t know/refused      $10-20k    14
 6 Evangelical Prot        $10-20k   869
 7 Hindu                   $10-20k     9
 8 Historically Black Prot $10-20k   244
 9 Jehovah's Witness       $10-20k    27
10 Jewish                  $10-20k    19
# ℹ 152 more rows
…
    # Remove lines where no income data was provided
    filter(
      income != "Don't know/refused"
          ) %>% 
  
    # Sort the data to sho 
    arrange(
      income,
      religion
          )

# A tibble: 162 × 3
   religion                income  count
   <chr>                   <chr>   <dbl>
 1 Agnostic                $10-20k    34
 2 Atheist                 $10-20k    27
 3 Buddhist                $10-20k    21
 4 Catholic                $10-20k   617
 5 Don’t know/refused      $10-20k    14
 6 Evangelical Prot        $10-20k   869
 7 Hindu                   $10-20k     9
 8 Historically Black Prot $10-20k   244
 9 Jehovah's Witness       $10-20k    27
10 Jewish                  $10-20k    19
# ℹ 152 more rows
…
